[start]
20180109	1100	20300101	1100	50700	999999	0	0	0	1	0	0	0	0	10000	0	0	0	0	0	0	0	0	0	
20170101	0	20300101	0	80200	999999	0	0	2	3	0	30	0	0	0	0	7500	0	2000	0	500	0	0	0		0	30	0	0	0	0	7500	0	2000	0	500	0	0	0		0	30	0	0	0	0	7500	0	2000	0	500	0	0	0	
20170101	0	20300101	0	80200	999999	0	0	3	3	0	75	0	0	0	0	7500	0	2000	0	500	0	0	0		0	75	0	0	0	0	7500	0	2000	0	500	0	0	0		0	75	0	0	0	0	7500	0	2000	0	500	0	0	0	
20201009	1100	20300101	1100	90900	999999	0	0	1	4	-1	0	0	0	0	0	0	0	0	0	0	0	0	0		-1	0	0	0	0	0	0	0	0	0	0	0	0	0		-1	0	0	0	0	0	0	0	0	0	0	0	0	0		525	0	0	0	0	0	0	0	0	0	10000	0	0	0	Get an Uber Rare Cat!! 100% Uber drop Rate in the PLATINUM CAPSULES!
20201113	1100	20300101	1100	91000	999999	0	0	1	4	-1	0	0	0	0	0	0	0	0	0	0	0	0	0		-1	0	0	0	0	0	0	0	0	0	0	0	0	0		-1	0	0	0	0	0	0	0	0	0	0	0	0	0		543	0	0	0	0	0	0	0	0	0	10000	0	0	0	Get an Uber Rare Cat!! 100% Uber drop Rate in the PLATINUM CAPSULES!
20201216	1100	20210102	000	100000	999999	0	0	0	4	-1	0	0	0	0	0	0	0	0	0	0	0	0	0		-1	0	0	0	0	0	0	0	0	0	0	0	0	0		-1	0	0	0	0	0	0	0	0	0	0	0	0	0		55	0	300	0	0	0	5100	0	3500	0	1400	0	0	0	【Limited Event】 Special chance for XP and Catamins! ★ On thru 1/1!
20201221	1100	20201228	1100	100100	999999	0	0	1	1	565	150	0	0	0	0	7000	0	2500	0	500	0	0	0	NEW Xmas-Only Hero! ★ Tap the banner for more info!
20201221	1100	20201223	1100	100100	999999	0	0	1	2	-1	0	0	0	0	0	0	0	0	0	0	0	0	0		540	150	0	0	0	0	6970	0	2500	0	500	0	30	0	Elemental Pixies, with new hero GRAVI ★ Tap banner for info!
20201223	1100	20201225	1100	100100	999999	0	0	1	2	-1	0	0	0	0	0	0	0	0	0	0	0	0	0		508	150	0	0	0	0	6970	0	2500	0	500	0	30	0	A Legend now fights alongside the spooky cuties! ★ Tap banner for info!
20201225	1100	20210108	000	100100	999999	0	0	0	3	-1	0	0	0	0	0	0	0	0	0	0	0	0	0		-1	0	0	0	0	0	0	0	0	0	0	0	0	0		57	0	0	0	0	0	7400	0	2100	0	500	0	0	0	【Limited】 Collect Li'l Cats only during this event!★ Thru January 7th!
20201225	1100	20210101	000	100100	999999	0	0	0	2	-1	0	0	0	0	0	0	0	0	0	0	0	0	0		5	0	0	2	500	0	7000	0	2000	0	500	0	0	0	★ Limited Capsules ★ Pick up extra Catseyes in this special Capsule set!
20201225	1100	20201228	1100	100100	999999	0	0	1	1	565	150	0	4136	0	0	7000	0	2500	0	500	1	0	0	NEW Xmas-Only Hero! ★ Tap the banner for more info!
20201225	1100	20201228	1100	100100	999999	0	0	1	2	-1	0	0	0	0	0	0	0	0	0	0	0	0	0		447	150	0	4136	0	0	6970	0	2500	0	500	1	30	0	Ultimate Cat artillery, with a top-secret Legend?! ★ Tap banner for info!
20201228	1100	20210101	000	100100	999999	0	0	1	1	547	150	0	4136	0	0	7000	0	2500	0	500	0	0	0	Your favorite Cats join forces for a Year's-End blowout!
20201228	1100	20210101	000	100100	999999	0	0	1	2	-1	0	0	0	0	0	0	0	0	0	0	0	0	0		487	150	0	4136	0	0	6970	0	2500	0	500	0	30	0	For Justice and Cats! The Dark Heroes! ★ Tap banner for info!
20210101	000	20210107	1100	100100	999999	0	0	0	2	-1	0	0	0	0	0	0	0	0	0	0	0	0	0		3	0	300	0	400	0	2000	0	7000	0	600	0	0	0	Limited Capsules ★ Collect Catfruit by drawing from this set!
20210101	000	20210104	1100	100100	999999	0	0	1	1	541	150	0	4136	0	0	6500	0	2600	0	900	0	0	0	Uberfest is here! ★ Extra-high Uber drop rate for every draw!
20210104	1100	20210118	1100	100100	999999	0	0	1	1	564	150	0	4136	0	0	7000	0	2500	0	500	0	0	0	Limited Hatsune Miku collab with NEW heroes! Tap banner for info!
20210104	1100	20210107	1100	100100	999999	0	0	1	2	-1	0	0	0	0	0	0	0	0	0	0	0	0	0		548	150	0	4136	0	0	7000	0	2500	0	500	0	0	0	Your favorite Cats join forces to kick off a brand new year!
20210104	1100	20210107	1100	100100	999999	0	0	1	3	-1	0	0	0	0	0	0	0	0	0	0	0	0	0		-1	0	0	0	0	0	0	0	0	0	0	0	0	0		430	150	0	4136	0	0	6970	0	2500	0	500	0	30	0	Galaxy Gals, here from the future to win the day! ★ Tap banner for info!
[end]
