[start]
20180109	1100	20300101	1100	50700	999999	0	0	0	1	0	0	0	0	10000	0	0	0	0	0	0	0	0	0	
20170101	0	20300101	0	80200	999999	0	0	2	3	0	30	0	0	0	0	7500	0	2000	0	500	0	0	0		0	30	0	0	0	0	7500	0	2000	0	500	0	0	0		0	30	0	0	0	0	7500	0	2000	0	500	0	0	0	
20170101	0	20300101	0	80200	999999	0	0	3	3	0	75	0	0	0	0	7500	0	2000	0	500	0	0	0		0	75	0	0	0	0	7500	0	2000	0	500	0	0	0		0	75	0	0	0	0	7500	0	2000	0	500	0	0	0	
20201009	1100	20300101	1100	90900	999999	0	0	1	4	-1	0	0	0	0	0	0	0	0	0	0	0	0	0		-1	0	0	0	0	0	0	0	0	0	0	0	0	0		-1	0	0	0	0	0	0	0	0	0	0	0	0	0		525	0	0	0	0	0	0	0	0	0	10000	0	0	0	Get an Uber Rare Cat!! 100% Uber drop Rate in the PLATINUM CAPSULES!
20201113	1100	20300101	1100	91000	999999	0	0	1	4	-1	0	0	0	0	0	0	0	0	0	0	0	0	0		-1	0	0	0	0	0	0	0	0	0	0	0	0	0		-1	0	0	0	0	0	0	0	0	0	0	0	0	0		543	0	0	0	0	0	0	0	0	0	10000	0	0	0	Get an Uber Rare Cat!! 100% Uber drop Rate in the PLATINUM CAPSULES!
20210212	000	20300101	1100	100200	999999	0	0	1	4	-1	0	0	0	0	0	0	0	0	0	0	0	0	0		-1	0	0	0	0	0	0	0	0	0	0	0	0	0		-1	0	0	0	0	0	0	0	0	0	0	0	0	0		556	0	0	0	0	0	0	0	0	0	10000	0	0	0	Get an Uber Rare Cat!! 100% Uber drop Rate in the PLATINUM CAPSULES!
20210503	1100	20300101	000	100400	999999	0	0	0	3	-1	0	0	0	0	0	0	0	0	0	0	0	0	0		-1	0	0	0	0	0	0	0	0	0	0	0	0	0		62	0	0	0	0	0	7400	0	2100	0	500	0	0	0	【Limited】 Collect Li'l Cats only during this event!
20210416	1100	20300101	000	100400	999999	0	0	0	4	-1	0	0	0	0	0	0	0	0	0	0	0	0	0		-1	0	0	0	0	0	0	0	0	0	0	0	0	0		-1	0	0	0	0	0	0	0	0	0	0	0	0	0		63	0	300	0	0	0	5100	0	3500	0	1400	0	0	0	【Limited Event】 Special chance for XP and Catamins!
20210507	1100	20300101	1100	100400	999999	0	0	1	4	-1	0	0	0	0	0	0	0	0	0	0	0	0	0		-1	0	0	0	0	0	0	0	0	0	0	0	0	0		-1	0	0	0	0	0	0	0	0	0	0	0	0	0		577	0	0	0	0	0	0	0	0	0	10000	0	0	0	Get an Uber Rare Cat!! 100% Uber drop Rate in the PLATINUM CAPSULES!
20210709	0	20300101	1100	100600	999999	0	0	1	4	-1	0	0	0	0	0	0	0	0	0	0	0	0	0		-1	0	0	0	0	0	0	0	0	0	0	0	0	0		-1	0	0	0	0	0	0	0	0	0	0	0	0	0		592	0	0	0	0	0	0	0	0	0	10000	0	0	0	Get an Uber Rare Cat!! 100% Uber drop Rate in the PLATINUM CAPSULES!	0	0	0	4	fr	Obtiens un ultra rare ! 100 % de chances avec les Chapsules platine !	it	Ottieni un gatto ultra raro! 100% possibilità di Ultra nelle CAPSULE PLATINO!	de	Hol dir eine megaseltene Katze!! 100-%-Chance in den PLATINKAPSELN!	es	¡Gana un gato megarraro! Garantizado en las BOLAS DE PLATINO.
20210823	1100	20210830	1100	100600	999999	0	0	0	2	-1	0	0	0	0	0	0	0	0	0	0	0	0	0		3	0	300	0	400	0	2000	0	7000	0	600	0	0	0	Limited Capsules ★ Collect Catfruit by drawing from this set!	0	4	fr	Chapsules ponctuelles ★ Obtiens des Chagrumes dans cet ensemble !	it	Capsule limitate ★ Ottieni miagrumi sorteggiando da questo set!	de	Limitierte Kapseln ★ Sammle Katzenfrüchte aus diesem Set!	es	Bolas exclusivas ★ ¡Consigue fruta felina en esta serie de bolas!
20210826	000	20210827	1100	100700	999999	0	0	1	1	572	150	0	0	0	0	6440	0	2500	0	1000	0	60	0	Double the Uber / Legend chances! ★ Ultimate anti-Zombie firepower!	4	fr	Chance x2 : ultra rare/légendaire ! ★ Puissance de feu anti-zombie ultime !	it	Doppia occasione di ultra/leggendari! ★ Potenza anti-zombi finale!	de	Doppelte Chance auf Mega/Legenden! ★ Ultimative Feuerkraft gg. Zombies!	es	¡Megarraros/Legendarios con el doble de probabilidad! ★ ¡Poder antizombi!
20210827	1100	20210830	1100	100700	999999	0	0	1	1	602	150	0	16384	0	0	6940	0	2500	0	500	0	60	0	A legion of top-class lady Cats led by Princess Cat! 2x Legend Rare drop chance!	4	fr	Légion féminine au top menée par Princesse féline ! Chance x2 : légendaire !	it	Potenti Gatte guidate dalla Principessa Gatta! Possibilità x2 di leggendari!	de	Erstklassige Katzen mit Prinzessin Katze! Doppelte Chance auf legendär Seltene!	es	¡Una legión de gatas guiadas por la Gata Princesa! ¡El doble de probabilidad!
20210827	1100	20300101	1100	100700	999999	0	0	1	4	-1	0	0	0	0	0	0	0	0	0	0	0	0	0		-1	0	0	0	0	0	0	0	0	0	0	0	0	0		-1	0	0	0	0	0	0	0	0	0	0	0	0	0		603	0	0	0	0	0	0	0	0	0	10000	0	0	0	Get an Uber Rare Cat!! 100% Uber drop Rate in the PLATINUM CAPSULES!	0	0	0	4	fr	Obtiens un ultra rare ! 100 % de chances avec les Chapsules platine !	it	Ottieni un gatto ultra raro! 100% possibilità di Ultra nelle CAPSULE PLATINO!	de	Hol dir eine megaseltene Katze!! 100-%-Chance in den PLATINKAPSELN!	es	¡Gana un gato megarraro! Garantizado en las BOLAS DE PLATINO.
20210830	1100	20210921	0	100800	999999	0	0	4	1	14	0	0	0	1000	0	5000	0	2000	0	500	1	1500	0	【Summer Break Cats】 Catch items & limited Cats using Legend Nets, thru 9/20!	Draw 	 more times from this Event to earn Kabuto Cat or Kuwagata Cat!	4	fr	【Chats de vacances d'été】 Attrape obj. et Chats au filet légend. jusqu'au 20/9 !	ENcore 	 ouvertures dans cet événement pour gagner le Chat Kabuto ou le Chat Kuwagata !	it	【Gatti estivi】 Oggetti e Gatti limitati con le reti leggendarie, fino al 20/09!	Sorteggia altre 	 volte da questo evento per ottenere Gatto Kabuto o Gatto Kuwagata!	de	(Sommerferienkatzen) Bis 20.9.: Gegenst. & limit. Katzen mit Legendennetzen!	Ziehe 	 Mal öfter aus diesem Event, um Kabutokatze oder Kuwagatakatze zu erhalten!	es	¡Gatos Estivales! ¡Pesca objetos y unidades con redes legendarias hasta el 20/9!	Abre 	 bolas más en este evento para llevarte el Gato Kabuto o el Gato Kuwagata.
20210830	1100	20210920	1100	100800	999999	0	0	1	2	-1	0	0	0	0	0	0	0	0	0	0	0	0	0		607	150	0	0	0	0	7000	0	2500	0	500	0	0	0	New heroes appear for summer fun! ★ Tap banner for info!	0	4	fr	Nouvelle dame de l’été à découvrir ! ★ Touche pour plus d’infos !	it	Ci sono novità tra le Ragazze estive! ★ Tocca il banner!	de	Die Sommermädchen haben ein neues Mitglied! ★ Tippe auf das Banner!	es	¡Nuevo miembro de las chicas de verano! ★ ¡Toca para saber más!
20210830	1100	20210901	1100	100800	999999	0	0	1	3	-1	0	0	0	0	0	0	0	0	0	0	0	0	0		-1	0	0	0	0	0	0	0	0	0	0	0	0	0		427	150	0	0	0	0	6970	0	2500	0	500	0	30	0	Slay your foes with the mighty Vajiras! ★ Tap banner for info!	0	0	4	fr	Élimine tes ennemis avec les puissants Vajiras ! ★ Touche pour plus d’infos !	it	Uccidi i nemici con il potente Vajiras! ★ Tocca il banner!	de	Vernichte deine Feinde mit dem mächtigen Vajiras! ★ Tippe auf das Banner!	es	¡Derrota enemigos con los poderosos Vajiras! ★ ¡Toca para saber más!
20210901	1100	20210903	1100	100800	999999	0	0	1	3	-1	0	0	0	0	0	0	0	0	0	0	0	0	0		-1	0	0	0	0	0	0	0	0	0	0	0	0	0		585	150	0	0	0	0	6970	0	2500	0	500	0	30	0	Spooky beauties from the netherworld! It's the GIRLS & MONSTERS!	0	0	4	fr	Beautés inquiétantes venues de l’au-delà ! C’est Les filles et les monstres !	it	Bellezze spettrali dall'oltretomba! RAGAZZE E MOSTRI in arrivo!	de	Gespenstische Schönheiten aus dem Jenseits! MÄDCHEN & MONSTER!	es	Bellezas escalofriantes del inframundo: ¡Chicas y Monstruos!
20210903	1100	20210906	1100	100800	999999	0	0	1	1	575	150	0	0	0	0	6500	0	2600	0	900	0	0	0	Baby Garu joins the fight, with higher Uber Rare drop rates!	4	fr	La Maxi-fête est arrivée ! ★ Taux d’obt. d’ultra rare très élevé !	it	Il Festival Ultra è qui! ★ Probabilità alte di Ultra con ogni sorteggio!	de	Das Megafest ist da! ★ Extrahohe Chance auf Megaseltene bei jeder Ziehung!	es	¡Llega el Megafesti! ★ ¡Gran probabilidad de conseguir megarraros en cada bola!
20210906	1100	20210920	1100	100800	999999	0	0	1	2	-1	0	0	0	0	0	0	0	0	0	0	0	0	0		607	150	0	4216	0	0	7000	0	2500	0	500	0	0	0	New heroes appear for summer fun! ★ Tap banner for info!	0	4	fr	Nouvelle dame de l’été à découvrir ! ★ Touche pour plus d’infos !	it	Ci sono novità tra le Ragazze estive! ★ Tocca il banner!	de	Die Sommermädchen haben ein neues Mitglied! ★ Tippe auf das Banner!	es	¡Nuevo miembro de las chicas de verano! ★ ¡Toca para saber más!
20210906	1100	20210908	1100	100800	999999	0	0	1	3	-1	0	0	0	0	0	0	0	0	0	0	0	0	0		-1	0	0	0	0	0	0	0	0	0	0	0	0	0		424	150	0	4216	0	0	6970	0	2500	0	500	0	30	0	A wacky variety set of mighty Uber Cats! ★ Tap banner for info!	0	0	4	fr	Des ultra rares aussi dingues que puissants ! ★ Touche pour plus d’infos !	it	Un set bizzarro di potenti Ultra Gatti! ★ Tocca il banner!	de	Eine verrückte Auswahl mächtiger Megakatzen! ★ Tippe auf das Banner!	es	¡Una serie de poderosos gatos megarraros! ★ ¡Toca para saber más!
20210908	1100	20210910	1100	100800	999999	0	0	1	3	-1	0	0	0	0	0	0	0	0	0	0	0	0	0		-1	0	0	0	0	0	0	0	0	0	0	0	0	0		517	150	0	4216	0	0	6970	0	2500	0	500	0	30	0	Uncanny Cats(?) from eldritch realms! ★ Tap banner for info!	0	0	4	fr	Chats surnaturels dont une unité légendaire ! ★ Touche pour plus d’infos !	it	Gatti arcani dall'aldilà con un Gatto leggendario misterioso! ★ Tocca il banner!	de	Schaurige Katzen (?) mit mystischer Legende! ★ Tippe auf das Banner!	es	Gatos sobrenaturales (?) ¡y una leyenda misteriosa! ★ ¡Toca para saber más!
[end]
