[start]
20180109	1100	20300101	1100	50700	999999	0	0	0	1	0	0	0	0	10000	0	0	0	0	0	0	0	0	0	
20170101	0	20300101	0	80200	999999	0	0	2	3	0	30	0	0	0	0	7500	0	2000	0	500	0	0	0		0	30	0	0	0	0	7500	0	2000	0	500	0	0	0		0	30	0	0	0	0	7500	0	2000	0	500	0	0	0	
20170101	0	20300101	0	80200	999999	0	0	3	3	0	75	0	0	0	0	7500	0	2000	0	500	0	0	0		0	75	0	0	0	0	7500	0	2000	0	500	0	0	0		0	75	0	0	0	0	7500	0	2000	0	500	0	0	0	
20210503	1100	20300101	0	100400	999999	0	0	0	3	-1	0	0	0	0	0	0	0	0	0	0	0	0	0		-1	0	0	0	0	0	0	0	0	0	0	0	0	0		62	0	0	0	0	0	7400	0	2100	0	500	0	0	0	【Limited】 Collect Li'l Cats only during this event!	0	0	4	fr	【Durée limitée】 P’tits Chats uniquement dans cet événement !	it	【Limitato】 Ottieni Mini Gatti solo in questo evento! 	de	(Begrenzt) Sammle nur während dieses Events kleine Katzen!	es	[Exclusivo] ¡Consigue Minigatos solo en este evento!
20210416	1100	20300101	0	100400	999999	0	0	0	4	-1	0	0	0	0	0	0	0	0	0	0	0	0	0		-1	0	0	0	0	0	0	0	0	0	0	0	0	0		-1	0	0	0	0	0	0	0	0	0	0	0	0	0		63	0	300	0	0	0	5100	0	3500	0	1400	0	0	0	【Limited Event】 Special chance for XP and Catamins!	0	0	0	4	fr	【Durée limitée】 Chance spéciale d’obtenir XP et vichamines ! 	it	【Evento limitato】 Occasione speciale per XP e Vitamiao! 	de	(Begrenztes Event) Sonderchance auf XP und Katzamine! 	es	[Evento exclusivo] ¡Probabilidad de ganar XP y gataminas!
20211022	1100	20300101	1100	100900	999999	0	0	1	4	-1	0	0	0	0	0	0	0	0	0	0	0	0	0		-1	0	0	0	0	0	0	0	0	0	0	0	0	0		-1	0	0	0	0	0	0	0	0	0	0	0	0	0		617	0	0	0	0	0	0	0	0	0	10000	0	0	0	Get an Uber Rare Cat!! 100% Uber drop Rate in the PLATINUM CAPSULES!	0	0	0	4	fr	Obtiens un ultra rare ! 100 % de chances avec les Chapsules platine !	it	Ottieni un gatto ultra raro! 100% possibilità di Ultra nelle CAPSULE PLATINO!	de	Hol dir eine megaseltene Katze!! 100-%-Chance in den PLATINKAPSELN!	es	¡Gana un gato megarraro! Garantizado en las BOLAS DE PLATINO.
20211105	1100	20300101	1100	101000	999999	0	0	1	4	-1	0	0	0	0	0	0	0	0	0	0	0	0	0		-1	0	0	0	0	0	0	0	0	0	0	0	0	0		-1	0	0	0	0	0	0	0	0	0	0	0	0	0		635	0	0	0	0	0	0	0	0	0	10000	0	0	0	Get an Uber Rare Cat!! 100% Uber drop Rate in the PLATINUM CAPSULES!	0	0	0	4	fr	Obtiens un ultra rare ! 100 % de chances avec les Chapsules platine !	it	Ottieni un gatto ultra raro! 100% possibilità di Ultra nelle CAPSULE PLATINO!	de	Hol dir eine megaseltene Katze!! 100-%-Chance in den PLATINKAPSELN!	es	¡Gana un gato megarraro! Garantizado en las BOLAS DE PLATINO.
20211119	1100	20300101	1100	101000	999999	0	0	1	4	-1	0	0	0	0	0	0	0	0	0	0	0	0	0		-1	0	0	0	0	0	0	0	0	0	0	0	0	0		-1	0	0	0	0	0	0	0	0	0	0	0	0	0		636	0	0	0	0	0	0	0	0	0	10000	0	0	0	Get an Uber Rare Cat!! 100% Uber drop Rate in the PLATINUM CAPSULES!	0	0	0	4	fr	Obtiens un ultra rare ! 100 % de chances avec les Chapsules platine !	it	Ottieni un gatto ultra raro! 100% possibilità di Ultra nelle CAPSULE PLATINO!	de	Hol dir eine megaseltene Katze!! 100-%-Chance in den PLATINKAPSELN!	es	¡Gana un gato megarraro! Garantizado en las BOLAS DE PLATINO.
20211122	1100	20300101	1100	101000	999999	0	0	1	5	-1	0	0	0	0	0	0	0	0	0	0	0	0	0		-1	0	0	0	0	0	0	0	0	0	0	0	0	0		-1	0	0	0	0	0	0	0	0	0	0	0	0	0		-1	0	0	0	0	0	0	0	0	0	0	0	0	0		639	0	0	0	0	0	0	0	0	0	9500	0	500	0	Get a Guaranteed Uber or Legend Rare from the Legend Capsules!	0	0	0	0	4	fr	Un ultra rare ou un légendaire garanti dans les Chapsules légendaires !	it	Ottieni un'unità ultra rara o leggendaria garantita dalle Capsule leggendarie!	de	Garantiert eine mega- oder legendär seltene Katze aus legendären Kapseln!	es	¡Una unidad megarrara o legendaria garantizada en las bolas legendarias!
20211126	1100	20300101	1100	101000	999999	0	0	1	4	-1	0	0	0	0	0	0	0	0	0	0	0	0	0		-1	0	0	0	0	0	0	0	0	0	0	0	0	0		-1	0	0	0	0	0	0	0	0	0	0	0	0	0		637	0	0	0	0	0	0	0	0	0	10000	0	0	0	Get an Uber Rare Cat!! 100% Uber drop Rate in the PLATINUM CAPSULES!	0	0	0	4	fr	Obtiens un ultra rare ! 100 % de chances avec les Chapsules platine !	it	Ottieni un gatto ultra raro! 100% possibilità di Ultra nelle CAPSULE PLATINO!	de	Hol dir eine megaseltene Katze!! 100-%-Chance in den PLATINKAPSELN!	es	¡Gana un gato megarraro! Garantizado en las BOLAS DE PLATINO.
20211126	1100	20300101	1100	101000	999999	0	0	1	5	-1	0	0	0	0	0	0	0	0	0	0	0	0	0		-1	0	0	0	0	0	0	0	0	0	0	0	0	0		-1	0	0	0	0	0	0	0	0	0	0	0	0	0		-1	0	0	0	0	0	0	0	0	0	0	0	0	0		640	0	0	0	0	0	0	0	0	0	9500	0	500	0	Get a Guaranteed Uber or Legend Rare from the Legend Capsules!	0	0	0	0	4	fr	Un ultra rare ou un légendaire garanti dans les Chapsules légendaires !	it	Ottieni un'unità ultra rara o leggendaria garantita dalle Capsule leggendarie!	de	Garantiert eine mega- oder legendär seltene Katze aus legendären Kapseln!	es	¡Una unidad megarrara o legendaria garantizada en las bolas legendarias!
20211213	1100	20211227	1100	110000	999999	0	0	1	2	-1	0	0	0	0	0	0	0	0	0	0	0	0	0		668	150	0	16384	0	0	7000	0	2500	0	500	0	0	0	Winter ladies, here for a limited time! ★ Get the Xmas Gals, only now!	0	4	fr	Dames de l’hiver à durée limitée ! ★ À toi les Minettes de Noël !	it	Inverno femminile, per un periodo limitato! ★ Le Ragazze natalizie, solo ora!	de	Winterdamen! Für begrenzte Zeit! ★ Hol dir jetzt die Weihnachtsdamen!	es	Chicas invernales, ¡por tiempo limitado! ★ Llévate a las Navidamas, ¡solo ahora!
20211222	1100	20211224	1100	110000	999999	0	0	1	3	-1	0	0	0	0	0	0	0	0	0	0	0	0	0		-1	0	0	0	0	0	0	0	0	0	0	0	0	0		498	150	0	16384	0	0	6970	0	2500	0	500	0	30	0	The Almighties, supreme beings of Catkind! ★ Tap banner for info!	0	0	4	fr	Les Immortels, êtres suprêmes chez les Chats ! ★ Touche pour plus d’infos !	it	Gli Onnipotenti, esseri supremi di origine felina! ★ Tocca il banner!	de	Die Allmächtigen, die höchsten Wesen der Katzheit! ★ Tippe auf das Banner!	es	¡Los Todopoderosos, seres felinos supremos! ★ ¡Toca para saber más!
20211224	1100	20211227	1100	110000	999999	0	0	1	1	647	150	0	0	0	0	6970	0	2500	0	500	1	30	0	Take out Aku and Aliens with new hero YAMII! ★ Tap banner for info!	4	fr	Élimine Akus et Aliens avec YAMII ! ★ Touche pour plus d'infos !	it	Sconfiggi Aku e alieni con il nuovo eroe YAMII! ★ Tocca il banner!	de	Besiege Aku und Aliens mit neuem Helden YAMII! ★ Tippe auf das Banner!!	es	¡Elimina a akus y álienes con el nuevo héroe YAMII! ★ ¡Toca para saber más!
20211224	1100	20211227	1100	110000	999999	0	0	1	2	-1	0	0	0	0	0	0	0	0	0	0	0	0	0		668	150	0	0	0	0	7000	0	2500	0	500	1	0	0	Winter ladies, here for a limited time! ★ Get the Xmas Gals, only now!	0	4	fr	Dames de l’hiver à durée limitée ! ★ À toi les Minettes de Noël !	it	Inverno femminile, per un periodo limitato! ★ Le Ragazze natalizie, solo ora!	de	Winterdamen! Für begrenzte Zeit! ★ Hol dir jetzt die Weihnachtsdamen!	es	Chicas invernales, ¡por tiempo limitado! ★ Llévate a las Navidamas, ¡solo ahora!
20211224	1100	20300101	1100	110000	999999	0	0	1	4	-1	0	0	0	0	0	0	0	0	0	0	0	0	0		-1	0	0	0	0	0	0	0	0	0	0	0	0	0		-1	0	0	0	0	0	0	0	0	0	0	0	0	0		655	0	0	0	0	0	0	0	0	0	9500	0	500	0	Get a Guaranteed Uber or Legend Rare from the Legend Capsules!	0	0	0	4	fr	Un ultra rare ou un légendaire garanti dans les Chapsules légendaires !	it	Ottieni un'unità ultra rara o leggendaria garantita dalle Capsule leggendarie!	de	Garantiert eine mega- oder legendär seltene Katze aus legendären Kapseln!	es	¡Una unidad megarrara o legendaria garantizada en las bolas legendarias!
20211224	1100	20300101	1100	110000	999999	0	0	1	5	-1	0	0	0	0	0	0	0	0	0	0	0	0	0		-1	0	0	0	0	0	0	0	0	0	0	0	0	0		-1	0	0	0	0	0	0	0	0	0	0	0	0	0		-1	0	0	0	0	0	0	0	0	0	0	0	0	0		653	0	0	0	0	0	0	0	0	0	10000	0	0	0	Get an Uber Rare Cat!! 100% Uber drop Rate in the PLATINUM CAPSULES!	0	0	0	0	4	fr	Obtiens un ultra rare ! 100 % de chances avec les Chapsules platine !	it	Ottieni un gatto ultra raro! 100% possibilità di Ultra nelle CAPSULE PLATINO!	de	Hol dir eine megaseltene Katze!! 100-%-Chance in den PLATINKAPSELN!	es	¡Gana un gato megarraro! Garantizado en las BOLAS DE PLATINO.
20211227	1100	20220101	000	110000	999999	0	0	1	1	602	150	0	4216	0	0	6940	0	2500	0	500	0	60	0	A legion of top-class lady Cats led by Princess Cat! 2x Legend Rare drop chance!	4	fr	Légion féminine au top menée par Princesse féline ! Chance x2 : légendaire !	it	Potenti Gatte guidate dalla Principessa Gatta! Possibilità x2 di leggendari!	de	Erstklassige Katzen mit Prinzessin Katze! Doppelte Chance auf legendär Seltene!	es	¡Una legión de gatas guiadas por la Gata Princesa! ¡El doble de probabilidad!
20211227	1100	20211229	1100	110000	999999	0	0	1	2	-1	0	0	0	0	0	0	0	0	0	0	0	0	0		624	150	0	20600	0	0	6970	0	2500	0	500	0	30	0	NEW Barrier and Shield destroying hero Furiluga appears! ★Tap banner for info!	0	4	fr	Nouvel anti-barrières et boucliers Furiluga ! ★Bannière pour plus d'infos.	it	Arriva Furiluga: il NUOVO eroe che distrugge barriere e scudi! ★Tocca il banner!	de	NEUER Barrieren- und Schilde-zerstörender Held Furiluga! ★ Tippe auf das Banner!	es	El nuevo héroe, Furiluga, rompe barreras y escudos. ★ ¡Toca para saber más!
20211229	1100	20220101	000	110000	999999	0	0	1	2	-1	0	0	0	0	0	0	0	0	0	0	0	0	0		611	150	0	20600	0	0	6970	0	2500	0	500	0	30	0	New Hero LILIN joins the fight to crush the Aku! ★ Tap for more info!	0	4	fr	Le nouveau héros LILIN vient combattre les Akus ! ★ Touche pour plus d’infos !	it	LILIN vuole contribuire a distruggere gli Aku! ★ Tocca per saperne di più!	de	Die neue Heldin LILIN ist da, um die Aku zu besiegen! ★ Tippe für mehr Info!	es	La nueva heroína LILIN se une a la lucha contra los akus. ★ Toca para saber más.
20220101	000	20220104	1100	110000	999999	0	0	1	1	675	150	0	4216	0	0	6500	0	2600	0	900	0	0	0	Baby Garu joins the fight, with higher Uber Rare drop rates!	4	fr	La Maxi-fête est arrivée ! ★ Taux d’obt. d’ultra rare très élevé !	it	Il Festival Ultra è qui! ★ Probabilità alte di Ultra con ogni sorteggio!	de	Das Megafest ist da! ★ Extrahohe Chance auf Megaseltene bei jeder Ziehung!	es	¡Llega el Megafesti! ★ ¡Gran probabilidad de conseguir megarraros en cada bola!
20220104	1100	20220106	1100	110000	999999	0	0	1	2	-1	0	0	0	0	0	0	0	0	0	0	0	0	0		487	150	0	20600	0	0	6970	0	2500	0	500	0	30	0	For Justice and Cats! The Dark Heroes! ★ Tap banner for info!	0	4	fr	Justice féline, avec les Héros de l’ombre ! ★ Touche pour plus d’infos !	it	Per la giustizia e per i Gatti! Gli Eroi Oscuri! ★ Tocca il banner!	de	Für Gerechtigkeit und Katzen! Dunkle Helden! ★ Tippe auf das Banner!	es	¡Por la justicia felina! ¡Héroes Sombríos! ★ ¡Toca para saber más!
20220106	1100	20220110	1100	110000	999999	0	0	1	1	623	150	0	4216	0	0	6770	0	2500	0	700	0	30	0	Joining forces from Seasonal sets, with higher drop rates!	4	fr	En renfort des ensembles saisonniers, avec des taux d’obt. plus élevés !	it	Unisciti alle forze dei set stagionali, con maggiori probabilità di ottenerli!	de	Sie stößt zu den Truppen aus den Saisonsets, mit höheren Chancen!	es	Las series de temporada se unen, ¡con más probabilidad de conseguir unidades!
20220106	1100	20220108	1100	110000	999999	0	0	1	2	-1	0	0	0	0	0	0	0	0	0	0	0	0	0		627	150	0	20600	0	0	6970	0	2500	0	500	0	30	0	NEW hero Summoner Satoru, effective vs Aku! ★Tap banner for info!	0	4	fr	Nouveau Satoru invocateur, efficace contre Akus ! ★Bannière pour plus d'infos.	it	Satoru invocatore: il NUOVO eroe efficace vs Aku! ★Tocca il banner!	de	NEUER Held Beschwörer Satoru, effektiv gg. Aku! ★ Tippe auf das Banner!	es	El nuevo héroe, Invocador Satoru, es eficaz contra akus. ★ ¡Toca para saber más!
20220108	1100	20220110	1100	110000	999999	0	0	1	2	-1	0	0	0	0	0	0	0	0	0	0	0	0	0		475	150	0	20600	0	0	6970	0	2500	0	500	0	30	0	Heroes of Japanese Fantasy! ★ Tap banner for info!	0	4	fr	Des héros à croquer pour la Saint-Valentin ! ★ Touche pour plus d’infos !	it	Dolcissimi eroi di San Valentino limitati! ★ Tocca il banner!	de	Supersüße, limitierte Valentinshelden! ★ Tippe auf das Banner!	es	¡Adorables y exclusivos héroes de San Valentín! ★ ¡Toca para saber más!
20220106	1100	20300101	1100	110100	999999	0	0	0	1	64	0	2300	0	10000	0	0	0	0	0	0	0	0	0		4	fr		it		de		es	
20220110	1100	20220112	1100	110000	999999	0	0	1	2	-1	0	0	0	0	0	0	0	0	0	0	0	0	0		585	150	0	16384	0	0	6970	0	2500	0	500	0	30	0	Spooky beauties from the netherworld! It's the GIRLS & MONSTERS!	0	4	fr	Beautés inquiétantes venues de l’au-delà ! C’est Les filles et les monstres !	it	Bellezze spettrali dall'oltretomba! RAGAZZE E MOSTRI in arrivo!	de	Gespenstische Schönheiten aus dem Jenseits! MÄDCHEN & MONSTER!	es	Bellezas escalofriantes del inframundo: ¡Chicas y Monstruos!
20220112	1100	20220114	1100	110000	999999	0	0	1	2	-1	0	0	0	0	0	0	0	0	0	0	0	0	0		630	150	0	16384	0	0	6970	0	2500	0	500	0	30	0	NEW hero Hevijak arises, effective vs Red and Aku! ★Tap banner for info!	0	4	fr	Nouveau Hevijack, efficace contre rouges et Akus ! ★Bannière pour plus d'infos.	it	Appare Hevijak: il NUOVO eroe efficace vs rossi e Aku! ★Tocca il banner!	de	NEUER Held Hevijak, effektiv gegen Rote und Aku! ★ Tippe auf das Banner!	es	Hevijak el Maligno es eficaz contra akus y rojos. ★ ¡Toca para saber más!
20220114	1100	20220117	1100	110000	999999	0	0	1	1	652	150	0	0	0	0	6500	0	2600	0	900	0	0	0	All the Ubers are gathered for EPICFEST, with higher drop rates!	4	fr	Tous les ultra rares sont là pour la Méga-fête, taux d’obt. plus élevés !	it	Gli Ultra sono al FESTIVAL EPICO, con maggiori probabilità di ottenerli!	de	Alle Megaseltenen versammeln sich zum epischen Fest mit höheren Chancen!	es	¡Llega el Hiperfesti, con más probabilidad de conseguir megarraros!
[end]
