[start]
20160101	0	20300101	0	50700	999999	0	0	1	1	0	150	0	0	0	0	7500	0	2000	0	500	0	0	0	여기에서만 얻을 수 있는 레어 캐릭터가 100% 출현!!
20180109	1100	20300101	1100	50700	999999	0	0	0	1	0	0	0	0	10000	0	0	0	0	0	0	0	0	0	
20170101	0	20300101	0	50700	999999	0	0	2	2	0	30	0	0	0	0	7500	0	2000	0	500	0	0	0		0	30	0	0	0	0	7500	0	2000	0	500	0	0	0	
20170101	0	20300101	0	50700	999999	0	0	3	2	0	75	0	0	0	0	7500	0	2000	0	500	0	0	0		0	75	0	0	0	0	7500	0	2000	0	500	0	0	0	
20181013	1100	20300101	1100	70400	999999	0	0	1	4	-1	150	0	0	0	0	7500	0	2000	0	500	0	0	0		-1	150	0	0	0	0	7500	0	2000	0	500	0	0	0		-1	150	0	0	0	0	7500	0	2000	0	500	0	0	0		320	0	0	0	0	0	0	0	0	0	10000	0	0	0	울트라 슈퍼 레어 캐릭터를 반드시 뽑을 수 있는 「플래티넘 뽑기」
20190316	1100	20190402	0	80202	999999	0	0	0	2	-1	0	300	0	0	0	5100	0	3500	0	1400	0	0	0		21	0	300	0	0	0	5100	0	3500	0	1400	0	0	0	【기간한정】고양이 드링크와 XP를 GET할 수 있는 특별 뽑기!★ 4월 1일 까지!
20190318	1100	20190401	1100	80300	999999	0	0	1	1	375	150	0	0	0	0	7000	0	2500	0	500	0	0	0	★「살아남아라! 개복치!」콜라보 뽑기 등장!★자세한 내용은 배너를 클릭!!★
20190325	1100	20190401	1100	80300	999999	0	0	1	1	376	150	0	0	0	0	7000	0	2500	0	500	0	0	0	★「살아남아라! 개복치!」콜라보 뽑기 등장!★자세한 내용은 배너를 클릭!!★
20190327	1100	20190401	1100	80300	999999	0	0	1	1	376	150	0	0	0	0	7000	0	2500	0	500	1	0	0	【종료 임박】 「살아남아라! 개복치!」콜라보 뽑기 등장!★10+1 연속 뽑기 울슈레 확정!★
20190327	1100	20190329	1100	80300	999999	0	0	1	2	-1	150	0	0	0	0	7500	0	2000	0	500	0	0	0		333	150	0	0	0	0	6970	0	2500	0	500	1	30	0	파워풀 & 큐트한 사이버학원 소녀전사들! 시크릿 참전!?★자세한 내용은 배너를 클릭! 
20190329	1100	20190401	1100	80300	999999	0	0	1	2	-1	150	0	0	0	0	7500	0	2000	0	500	0	0	0		342	150	0	0	0	0	7000	0	2500	0	500	1	0	0	★11연속 뽑기 울슈레 1개 이상 확정! 머~찐 영웅들 【다크 히어로즈】 등장!★
20190401	1100	20190404	1100	80300	999999	0	0	1	1	360	150	0	0	0	0	6500	0	2600	0	900	0	0	0	★강력한 한정 캐릭터 「쾌걸 달타냥」 참전!★울슈레 확률 지금만 초 UP★
20190404	1100	20190406	1100	80300	999999	0	0	1	1	345	150	0	0	0	0	7000	0	2500	0	500	0	0	0	★냥코 월드에 위대한 신들이 집결★ 【궁극강림 기간트 제우스】 등장★
20190406	1100	20190408	1100	80300	999999	0	0	1	1	246	150	0	4	0	0	7000	0	2500	0	500	0	0	0	★보너스☆UP 뽑기 개최 중!! 떠있는 적에 강한 캐릭터 대집결!  【에어 바스터즈】  등장!★
20190408	1100	20190410	1100	80300	999999	0	0	1	1	336	150	0	0	0	0	6970	0	2500	0	500	0	30	0	★압도적인 파괴력을 가진 초파괴대제 【드래곤 엠퍼러스】 등장★
20190408	1100	20190422	1100	80300	999999	0	0	1	2	-1	150	0	0	0	0	7500	0	2000	0	500	0	0	0		259	150	0	0	0	0	7000	0	2500	0	500	0	0	0	♡봄 한정♡깜찍한 코스프레 캐릭터가 등장♡자세한 내용은 배너를 클릭♡
20190410	1100	20190412	1100	80300	999999	0	0	1	1	351	150	0	0	0	0	7000	0	2500	0	500	0	0	0	★우주에서 온 개성 넘치는 깜찍한 정령들! 【대정령 엘레멘탈 픽시즈】 등장!★
20190412	1100	20190415	1100	80300	999999	0	0	1	1	361	150	0	0	0	0	6500	0	2600	0	900	0	0	0	★한정 캐릭터 「호걸 달타냥」 참전!★울슈레 확률 지금만 초 UP★
[end]
