[start]
20180109	1100	20300101	1100	50700	999999	0	0	0	1	0	0	0	0	10000	0	0	0	0	0	0	0	0	0	
20170101	0	20300101	0	80200	999999	0	0	2	3	0	30	0	0	0	0	7500	0	2000	0	500	0	0	0		0	30	0	0	0	0	7500	0	2000	0	500	0	0	0		0	30	0	0	0	0	7500	0	2000	0	500	0	0	0	
20170101	0	20300101	0	80200	999999	0	0	3	3	0	75	0	0	0	0	7500	0	2000	0	500	0	0	0		0	75	0	0	0	0	7500	0	2000	0	500	0	0	0		0	75	0	0	0	0	7500	0	2000	0	500	0	0	0	
20201009	1100	20300101	1100	90900	999999	0	0	1	4	-1	0	0	0	0	0	0	0	0	0	0	0	0	0		-1	0	0	0	0	0	0	0	0	0	0	0	0	0		-1	0	0	0	0	0	0	0	0	0	0	0	0	0		525	0	0	0	0	0	0	0	0	0	10000	0	0	0	울트라 슈퍼 레어 캐릭터를 반드시 뽑을 수 있는 ★플래티넘 뽑기★
20201113	1100	20300101	1100	91000	999999	0	0	1	4	-1	0	0	0	0	0	0	0	0	0	0	0	0	0		-1	0	0	0	0	0	0	0	0	0	0	0	0	0		-1	0	0	0	0	0	0	0	0	0	0	0	0	0		543	0	0	0	0	0	0	0	0	0	10000	0	0	0	울트라 슈퍼 레어 캐릭터 100% 획득 가능! ★플래티넘 뽑기★
20210212	000	20300101	1100	100200	999999	0	0	1	4	-1	0	0	0	0	0	0	0	0	0	0	0	0	0		-1	0	0	0	0	0	0	0	0	0	0	0	0	0		-1	0	0	0	0	0	0	0	0	0	0	0	0	0		556	0	0	0	0	0	0	0	0	0	10000	0	0	0	울트라 슈퍼 레어 캐릭터 100% 획득 가능! ★플래티넘 뽑기★
20210503	1100	20300101	0	100400	999999	0	0	0	3	-1	0	0	0	0	0	0	0	0	0	0	0	0	0		-1	0	0	0	0	0	0	0	0	0	0	0	0	0		62	0	0	0	0	0	7400	0	2100	0	500	0	0	0	【기간한정】 꼬맹이 고양이들을 손에 넣을 수 있는 특별 이벤트 뽑기 등장!
20210416	1100	20300101	0	100400	999999	0	0	0	4	-1	0	0	0	0	0	0	0	0	0	0	0	0	0		-1	0	0	0	0	0	0	0	0	0	0	0	0	0		-1	0	0	0	0	0	0	0	0	0	0	0	0	0		63	0	300	0	0	0	5100	0	3500	0	1400	0	0	0	【기간한정】 고양이 드링크와 XP를 GET할 수 있는 특별 뽑기!
20210412	1100	20210426	1100	100400	999999	0	0	1	2	-1	0	0	0	0	0	0	0	0	0	0	0	0	0		414	150	0	0	0	0	7000	0	2500	0	500	0	0	0	메르크 스토리아의 캐릭터만 출현하는 특별 뽑기!★자세한 내용은 배너를 클릭!!
20210421	1100	20210423	1100	100400	999999	0	0	1	3	-1	0	0	0	0	0	0	0	0	0	0	0	0	0		-1	0	0	0	0	0	0	0	0	0	0	0	0	0		433	150	0	0	0	0	6970	0	2500	0	500	0	30	0	압도적인 존재감을 내뿜는 강력한 드래곤들!★자세한 내용은 배너를 클릭!
20210423	1100	20210426	1100	100400	999999	0	0	1	2	-1	0	0	0	0	0	0	0	0	0	0	0	0	0		414	150	0	0	0	0	7000	0	2500	0	500	1	0	0	【종료 임박】 메르크 스토리아 한정 콜라보 뽑기★10+1 연속 뽑기 울슈레 확정!
20210423	1100	20210426	1100	100400	999999	0	0	1	3	-1	0	0	0	0	0	0	0	0	0	0	0	0	0		-1	0	0	0	0	0	0	0	0	0	0	0	0	0		538	150	0	0	0	0	6970	0	2500	0	500	1	30	0	신 캐릭터 '돌의 정령 롤링스톤' 참전! 개성적이고 유쾌한 정령들!★자세한 내용은 배너를 클릭!
20210419	1100	20210426	1100	100400	999999	0	0	0	2	-1	0	0	0	0	0	0	0	0	0	0	0	0	0		5	0	0	2	500	0	7000	0	2000	0	500	0	0	0	☆기간 한정★높은 확률로 캣츠아이를 획득할 수 있는 특별 뽑기!☆
20210426	1100	20210503	1100	100400	999999	0	0	0	2	-1	0	0	0	0	0	0	0	0	0	0	0	0	0		3	0	300	0	400	0	2000	0	7000	0	600	0	0	0	☆기간 한정★개다래를 획득할 수 있는 특별 뽑기!☆
20210426	1100	20210428	1100	100400	999999	0	0	1	1	451	150	0	4	0	0	7000	0	2500	0	500	0	0	0	빨간 적은 우리에게 맡겨달라냥! 한정 캐릭터도 등장!★보너스 업 이벤트 개최 중!
20210426	1100	20210428	1100	100400	999999	0	0	1	2	-1	0	0	0	0	0	0	0	0	0	0	0	0	0		452	150	0	4	0	0	7000	0	2500	0	500	0	0	0	떠있는 적에 강력한 '에어 바스터즈' 등장! !★보너스 업 이벤트 개최 중!
20210428	1100	20210430	1100	100400	999999	0	0	1	1	453	150	0	4	0	0	7000	0	2500	0	500	0	0	0	메탈 적에 절대적인 파워! 한정 캐릭터도 등장하는 특별 뽑기!★보너스 업 이벤트 개최 중!
20210428	1100	20210430	1100	100400	999999	0	0	1	2	-1	0	0	0	0	0	0	0	0	0	0	0	0	0		523	150	0	4	0	0	7000	0	2500	0	500	0	0	0	파동 공격에 강한 캐릭터가 총집합한 파동 바스터즈 등장!★보너스 UP 뽑기 개최 중!
20210430	1100	20210503	1100	100400	999999	0	0	1	1	555	150	0	0	0	0	6500	0	2600	0	900	0	0	0	신 캐릭터 '요수 가루' 참전!★울슈레 출현율 초 UP! 울트라 고양이 축제 개최 중!
20210503	1100	20210505	1100	100400	999999	0	0	1	1	489	150	0	4216	0	0	6970	0	2500	0	500	0	30	0	정의와 어둠의 힘을 둘 다 갖춘 냥코 군단의 구세주들!★자세한 내용은 배너를 탭!
20210505	1100	20210507	1100	100400	999999	0	0	1	1	508	150	0	4216	0	0	6970	0	2500	0	500	0	30	0	이세계에서 소환된 유쾌한 미소녀들! 시크릿 미소녀 참전!★자세한 내용은 배너를 클릭!
20210507	1100	20210510	1100	100400	999999	0	0	1	1	574	150	0	4216	0	0	6970	0	2500	0	500	1	30	0	신 캐릭터 '공중상사 콜럼버스' 참전!★냥코 군단의 초병기!★자세한 내용은 배너를 클릭!
20210507	1100	20300101	1100	100400	999999	0	0	1	4	-1	0	0	0	0	0	0	0	0	0	0	0	0	0		-1	0	0	0	0	0	0	0	0	0	0	0	0	0		-1	0	0	0	0	0	0	0	0	0	0	0	0	0		577	0	0	0	0	0	0	0	0	0	10000	0	0	0	울트라 슈퍼 레어 캐릭터 100% 획득 가능! ★플래티넘 뽑기★
20210510	1100	20210512	1100	100400	999999	0	0	1	1	477	150	0	4216	0	0	6970	0	2500	0	500	0	30	0	냥코 월드 최대급 진화! 초고대 전설의 용사들!★자세한 내용은 배너를 클릭!
20210512	1100	20210514	1100	100400	999999	0	0	1	1	432	150	0	4216	0	0	6970	0	2500	0	500	0	30	0	♡파워풀&큐트한 소녀들♡자세한 내용은 배너를 클릭♡
20210514	1100	20210517	1100	100400	999999	0	0	1	1	576	150	0	4216	0	0	6500	0	2600	0	900	0	0	0	울트라 슈퍼 레어 캐릭터가 총집합!★확률도 초 UP된 하이퍼 고양이 축제 개최 중!
[end]
