[start]
20180109	1100	20300101	1100	50700	999999	0	0	0	1	0	0	0	0	10000	0	0	0	0	0	0	0	0	0	
20160101	0	20300101	0	50700	999999	0	0	1	1	0	150	0	0	0	0	7500	0	2000	0	500	0	0	0	只有從這個轉蛋才能拿到的限定角色等著你喔！
20170101	0	20300101	0	80200	999999	0	0	2	3	0	30	0	0	0	0	7500	0	2000	0	500	0	0	0		0	30	0	0	0	0	7500	0	2000	0	500	0	0	0		0	30	0	0	0	0	7500	0	2000	0	500	0	0	0	
20170101	0	20300101	0	80200	999999	0	0	3	3	0	75	0	0	0	0	7500	0	2000	0	500	0	0	0		0	75	0	0	0	0	7500	0	2000	0	500	0	0	0		0	75	0	0	0	0	7500	0	2000	0	500	0	0	0	
20181013	1100	20300101	1100	70400	999999	0	0	1	4	-1	150	0	0	0	0	7500	0	2000	0	500	0	0	0		-1	150	0	0	0	0	7500	0	2000	0	500	0	0	0		-1	150	0	0	0	0	7500	0	2000	0	500	0	0	0		320	0	0	0	0	0	0	0	0	0	10000	0	0	0	必出超激稀有角色的白金轉蛋！快來獲得心儀的貓咪吧！
20191012	1100	20300101	1100	80900	999999	0	0	1	4	-1	150	0	0	0	0	7500	0	2000	0	500	0	0	0		-1	150	0	0	0	0	7500	0	2000	0	500	0	0	0		-1	150	0	0	0	0	7500	0	2000	0	500	0	0	0		401	0	0	0	0	0	0	0	0	0	10000	0	0	0	必出超激稀有角色的白金轉蛋！快來獲得心儀的貓咪吧！
20191029	1100	20300101	1100	80900	999999	0	0	1	4	-1	0	0	0	0	0	0	0	0	0	0	0	0	0		-1	0	0	0	0	0	0	0	0	0	0	0	0	0		-1	0	0	0	0	0	0	0	0	0	0	0	0	0		407	0	0	0	0	0	0	0	0	0	10000	0	0	0	必出超激稀有角色的白金轉蛋！快來獲得心儀的貓咪吧！
20191129	1100	20300101	1100	90000	999999	0	0	1	4	-1	0	0	0	0	0	0	0	0	0	0	0	0	0		-1	0	0	0	0	0	0	0	0	0	0	0	0	0		-1	0	0	0	0	0	0	0	0	0	0	0	0	0		413	0	0	0	0	0	0	0	0	0	10000	0	0	0	必出超激稀有角色的白金轉蛋！快來獲得心儀的貓咪吧！
20191216	1100	20191218	1100	90000	999999	0	0	1	1	392	150	0	0	0	0	6970	0	2500	0	500	0	30	0	貓咪世界的偉大眾神集結！想知道誰秘密參戰！？★點圖確認詳細吧！！
20191216	1100	20200102	0	90000	999999	0	0	0	4	-1	0	0	0	0	0	0	0	0	0	0	0	0	0		-1	0	0	0	0	0	0	0	0	0	0	0	0	0		-1	0	0	0	0	0	0	0	0	0	0	0	0	0		35	0	300	0	0	0	5100	0	3500	0	1400	0	0	0	限時開放★能夠獲得喵力達與XP的特別轉蛋！★1月1日為止！
20191218	1100	20191220	1100	90000	999999	0	0	1	1	384	150	0	0	0	0	6970	0	2500	0	500	0	30	0	正義的暗黑英雄，貓咪軍團的異星戰士剋星！★點圖可以看詳細內容喔！
20191220	1100	20191223	1100	90100	999999	0	0	1	1	427	150	0	0	0	0	6970	0	2500	0	500	1	30	0	成田甲斐參戰！對上黑敵有強大效果最靠得住的戰國武將們！★點圖確認詳細吧！！
20191220	1100	20191226	1100	90100	999999	0	0	1	2	-1	0	0	0	0	0	0	0	0	0	0	0	0	0		472	150	0	0	0	0	7000	0	2500	0	500	1	0	0	冬季限定！快來獲得可愛的聖誕節貓咪吧！★11連轉超激確定活動中！
20191223	1100	20191226	1100	90100	999999	0	0	1	1	424	150	0	0	0	0	6970	0	2500	0	500	1	30	0	拉斯沃斯參戰！世界第一即戰力的貓咪們！★點圖可以看詳細內容喔！
20191223	1100	20300101	1100	90100	999999	0	0	1	4	-1	0	0	0	0	0	0	0	0	0	0	0	0	0		-1	0	0	0	0	0	0	0	0	0	0	0	0	0		-1	0	0	0	0	0	0	0	0	0	0	0	0	0		471	0	0	0	0	0	0	0	0	0	10000	0	0	0	必出超激稀有角色的白金轉蛋！快來獲得心儀的貓咪吧！
[end]
