[start]
20180109	1100	20300101	0	60700	999999	0	0	0	1	0	0	0	0	10000	0	0	0	0	0	0	0	0	0	
20160101	0	20300101	0	50700	999999	0	0	1	1	0	150	0	0	0	0	7500	0	2000	0	500	0	0	0	ここでしか手に入らないキャラクターが必ず出現！しかもレアキャラ以上確定!!
20180101	0	20300101	0	50700	999999	0	0	2	2	33	30	0	0	0	0	7500	0	2000	0	500	0	0	0		23	30	0	0	0	0	7500	0	2000	0	500	0	0	0	
20180101	0	20300101	0	50700	999999	0	0	3	2	33	75	0	0	0	0	7500	0	2000	0	500	0	0	0		23	75	0	0	0	0	7500	0	2000	0	500	0	0	0	
20180915	1100	20300101	0	70400	999999	0	0	1	4	-1	150	0	0	0	0	7500	0	2000	0	500	0	0	0		-1	150	0	0	0	0	7500	0	2000	0	500	0	0	0		-1	150	0	0	0	0	7500	0	2000	0	500	0	0	0		320	0	0	0	0	0	0	0	0	0	10000	0	0	0	超激レアのキャラクターが必ず１体手に入る「プラチナガチャ」！
20190516	1100	20190601	1100	80500	999999	0	0	0	4	-1	150	0	0	0	0	7500	0	2000	0	500	0	0	0		-1	150	0	0	0	0	7500	0	2000	0	500	0	0	0		-1	150	0	0	0	0	7500	0	2000	0	500	0	0	0		24	0	300	0	0	0	5100	0	3500	0	1400	0	0	0	【期間限定】ネコビタンとXPが手に入る特別仕様ガチャ！★6月1日まで！
20190524	1100	20190526	1100	80501	999999	0	0	1	1	273	150	0	4	0	0	7000	0	2500	0	500	0	0	0	メタルな敵に効果絶大！限定キャラも登場の特別版！★おまけアップイベント開催中!!
20190526	1100	20190528	1100	80501	999999	0	0	1	1	345	150	0	0	0	0	7000	0	2500	0	500	0	0	0	にゃんこワールドの偉大なる神々、ここに集結！★詳細はバナーをタップ!!
20190528	1100	20190529	1100	80501	999999	0	0	1	1	342	150	0	0	0	0	7000	0	2500	0	500	0	0	0	正義と闇、２つの力を持つにゃんこ軍団の救世主！★詳細はバナーをタップ!!
20190529	1100	20190612	1100	80600	999999	0	0	1	1	387	150	0	0	0	0	7000	0	2500	0	500	0	0	0	【期間限定】新キャラ追加！『消滅都市0.』コラボガチャ★詳細はバナーをタップ!!
20190529	1100	20190531	1100	80600	999999	0	0	1	2	-1	150	0	0	0	0	7000	0	2500	0	500	0	0	0	【期間限定】新キャラ追加！『消滅都市0.』コラボガチャ★詳細はバナーをタップ!!	362	150	0	0	0	0	6970	0	2500	0	500	0	30	0	にゃんこワールド最大級の仰天進化！シークレット新参戦！？★詳細はバナーをタップ!!
20190531	1100	20190603	1100	80600	999999	0	0	1	2	-1	150	0	0	0	0	7000	0	2500	0	500	0	0	0	【期間限定】新キャラ追加！『消滅都市0.』コラボガチャ★詳細はバナーをタップ!!	360	150	0	0	0	0	6500	0	2600	0	900	0	0	0	強力な限定キャラ「幼傑ダルターニャ」も参戦！★超激レア出現率が今だけ超アップ!!
20190603	1100	20190605	1100	80600	999999	0	0	1	2	-1	150	0	0	0	0	7000	0	2500	0	500	0	0	0	【期間限定】新キャラ追加！『消滅都市0.』コラボガチャ★詳細はバナーをタップ!!	372	150	0	0	0	0	6970	0	2500	0	500	0	30	0	謎だらけのキモかわ生命体！シークレット新参戦！？★詳細はバナーをタップ!!
20190605	1100	20190607	1100	80600	999999	0	0	1	2	-1	150	0	0	0	0	7000	0	2500	0	500	0	0	0	【期間限定】新キャラ追加！『消滅都市0.』コラボガチャ★詳細はバナーをタップ!!	330	150	0	0	0	0	6970	0	2500	0	500	0	30	0	黒い敵に強力効果のバサラーズ！シークレット武将新参戦！？★詳細はバナーをタップ!!
20190607	1100	20190608	1100	80600	999999	0	0	1	2	-1	150	0	0	0	0	7000	0	2500	0	500	0	0	0	【期間限定】新キャラ追加！『消滅都市0.』コラボガチャ★詳細はバナーをタップ!!	377	150	0	0	0	0	6970	0	2500	0	500	0	30	0	にゃんこ軍団秘蔵の超兵器達！シークレット新参戦！？★詳細はバナーをタップ!!
[end]
