[start]
20180109	1100	20300101	0	60700	999999	0	0	0	1	0	0	0	0	10000	0	0	0	0	0	0	0	0	0	
20180101	0	20300101	0	80200	999999	0	0	2	3	33	30	0	0	0	0	7500	0	2000	0	500	0	0	0		23	30	0	0	0	0	7500	0	2000	0	500	0	0	0		0	30	0	0	0	0	7500	0	2000	0	500	0	0	0	
20180101	0	20300101	0	80200	999999	0	0	3	3	33	75	0	0	0	0	7500	0	2000	0	500	0	0	0		23	75	0	0	0	0	7500	0	2000	0	500	0	0	0		0	75	0	0	0	0	7500	0	2000	0	500	0	0	0	
20210426	1100	20300101	000	100400	999999	0	0	0	3	-1	0	0	0	0	0	0	0	0	0	0	0	0	0		-1	0	0	0	0	0	0	0	0	0	0	0	0	0		62	0	0	0	0	0	7400	0	2100	0	500	0	0	0	ちびネコ達が手に入る特別仕様のイベントガチャ！
20210316	1100	20300101	000	100400	999999	0	0	0	4	-1	0	0	0	0	0	0	0	0	0	0	0	0	0		-1	0	0	0	0	0	0	0	0	0	0	0	0	0		-1	0	0	0	0	0	0	0	0	0	0	0	0	0		63	0	300	0	0	0	5100	0	3500	0	1400	0	0	0	ネコビタンとXPが手に入る特別仕様ガチャ！
20211208	000	20300101	000	110100	999999	0	0	0	1	64	0	2300	0	10000	0	0	0	0	0	0	0	0	0	
20211126	1100	20300101	000	110000	999999	0	0	1	4	-1	0	0	0	0	0	0	0	0	0	0	0	0	0		-1	0	0	0	0	0	0	0	0	0	0	0	0	0		-1	0	0	0	0	0	0	0	0	0	0	0	0	0		674	0	0	0	0	0	0	0	0	0	9500	0	500	0	超激レア以上のキャラクターが必ず１体手に入る「レジェンドガチャ」！
20211126	1100	20300101	000	110000	999999	0	0	1	5	-1	0	0	0	0	0	0	0	0	0	0	0	0	0		-1	0	0	0	0	0	0	0	0	0	0	0	0	0		-1	0	0	0	0	0	0	0	0	0	0	0	0	0		-1	0	0	0	0	0	0	0	0	0	0	0	0	0		672	0	0	0	0	0	0	0	0	0	10000	0	0	0	超激レアのキャラクターが必ず１体手に入る「プラチナガチャ」！
20211224	1100	20300101	000	110100	999999	0	0	1	4	-1	0	0	0	0	0	0	0	0	0	0	0	0	0		-1	0	0	0	0	0	0	0	0	0	0	0	0	0		-1	0	0	0	0	0	0	0	0	0	0	0	0	0		686	0	0	0	0	0	0	0	0	0	9500	0	500	0	超激レア以上のキャラクターが必ず１体手に入る「レジェンドガチャ」！
20211224	1100	20300101	000	110100	999999	0	0	1	5	-1	0	0	0	0	0	0	0	0	0	0	0	0	0		-1	0	0	0	0	0	0	0	0	0	0	0	0	0		-1	0	0	0	0	0	0	0	0	0	0	0	0	0		-1	0	0	0	0	0	0	0	0	0	0	0	0	0		684	0	0	0	0	0	0	0	0	0	10000	0	0	0	超激レアのキャラクターが必ず１体手に入る「プラチナガチャ」！
20220101	000	20300101	000	110100	999999	0	0	1	4	-1	0	0	0	0	0	0	0	0	0	0	0	0	0		-1	0	0	0	0	0	0	0	0	0	0	0	0	0		-1	0	0	0	0	0	0	0	0	0	0	0	0	0		687	0	0	0	0	0	0	0	0	0	9500	0	500	0	超激レア以上のキャラクターが必ず１体手に入る「レジェンドガチャ」！
20220101	000	20300101	000	110100	999999	0	0	1	5	-1	0	0	0	0	0	0	0	0	0	0	0	0	0		-1	0	0	0	0	0	0	0	0	0	0	0	0	0		-1	0	0	0	0	0	0	0	0	0	0	0	0	0		-1	0	0	0	0	0	0	0	0	0	0	0	0	0		685	0	0	0	0	0	0	0	0	0	10000	0	0	0	超激レアのキャラクターが必ず１体手に入る「プラチナガチャ」！
20220121	1100	20300101	000	110200	999999	0	0	1	4	-1	0	0	0	0	0	0	0	0	0	0	0	0	0		-1	0	0	0	0	0	0	0	0	0	0	0	0	0		-1	0	0	0	0	0	0	0	0	0	0	0	0	0		703	0	0	0	0	0	0	0	0	0	9500	0	500	0	超激レア以上のキャラクターが必ず１体手に入る「レジェンドガチャ」！
20220121	1100	20300101	000	110200	999999	0	0	1	5	-1	0	0	0	0	0	0	0	0	0	0	0	0	0		-1	0	0	0	0	0	0	0	0	0	0	0	0	0		-1	0	0	0	0	0	0	0	0	0	0	0	0	0		-1	0	0	0	0	0	0	0	0	0	0	0	0	0		702	0	0	0	0	0	0	0	0	0	10000	0	0	0	超激レアのキャラクターが必ず１体手に入る「プラチナガチャ」！
20220131	1100	20220214	2359	110200	999999	0	0	4	1	17	0	0	0	1000	0	5000	0	3000	0	1000	1	0	0	【春節イベント】伝説の縁起物で回せる限定ガチャ！★2月14日まで	このガチャをあと	回ガチャれば限定キャラクターが必ず出現！
20220131	1100	20220203	1100	110200	999999	0	0	1	1	700	150	0	0	0	0	6500	0	2600	0	900	0	0	0	超激レアキャラが一堂に集結!!★超激レア出現率超アップの「超ネコ祭」開催中!!
20220131	1100	20220214	1100	110200	999999	0	0	1	3	-1	0	0	0	0	0	0	0	0	0	0	0	0	0		-1	0	0	0	0	0	0	0	0	0	0	0	0	0		696	150	0	4	0	0	7000	0	2500	0	500	0	0	0	登場キャラ追加！限定キャラも登場する特別版！★おまけアップイベント開催中!!
20220203	1100	20220205	1100	110200	999999	0	0	1	1	678	150	0	16384	0	0	6970	0	2500	0	500	0	30	0	浮いてる敵と悪魔に強い新キャラ「堕天神ルシファー」参戦！★詳細はバナーをタップ!!
20220205	1100	20220207	1100	110200	999999	0	0	1	1	659	150	0	16384	0	0	6970	0	2500	0	500	0	30	0	悪魔と天使に強い新キャラクター「舌切りすずめ」参戦！★詳細はバナーをタップ!!
20220214	1100	20220221	1100	110200	999999	0	0	0	2	-1	0	0	0	0	0	0	0	0	0	0	0	0	0		5	0	0	2	500	0	7000	0	2000	0	500	0	0	0	高確率でキャッツアイが手に入るイベント限定特別ガチャ！
20220207	1100	20220209	1100	110200	999999	0	0	1	1	644	150	0	20600	0	0	6970	0	2500	0	500	0	30	0	ゾンビと悪魔に強い新キャラ「超竜戦機デス・トロイ」参戦！★詳細はバナーをタップ!!
20220207	1100	20220221	1100	110200	999999	0	0	1	2	-1	0	0	0	0	0	0	0	0	0	0	0	0	0		698	150	0	4216	0	0	7000	0	2500	0	500	0	0	0	新キャラ追加！バレンタイン期間限定のスイートなガチャ！★詳細はバナーをタップ!!
20220209	1100	20220211	1100	110200	999999	0	0	1	1	629	150	0	20600	0	0	6970	0	2500	0	500	0	30	0	悪魔属性に強い新キャラクター「召喚少年サトル」参戦！★詳細はバナーをタップ!!
20220211	1100	20220214	1100	110200	999999	0	0	1	1	701	150	0	4216	0	0	6500	0	2600	0	900	0	0	0	新キャラ「黒獣ガルディアン」参戦！★超激レア出現率超アップの「極ネコ祭」開催中!!
20220214	1100	20220216	1100	110200	999999	0	0	1	1	647	150	0	20600	0	0	6970	0	2500	0	500	0	30	0	エイリアンと悪魔に強い新キャラ「闇の精霊ヤミィ」参戦！★詳細はバナーをタップ!!
20220207	1100	20220214	1100	110200	999999	0	0	1	3	-1	0	0	0	0	0	0	0	0	0	0	0	0	0		-1	0	0	0	0	0	0	0	0	0	0	0	0	0		696	150	0	4220	0	0	7000	0	2500	0	500	0	0	0	登場キャラ追加！限定キャラも登場する特別版！★おまけアップイベント開催中!!
[end]
